{
	"type": "minecraft:crafting_shaped",
	"pattern": [
		"ss ",
		"s| ",
		" | "
	],
	"key": {
		"s": {
			"item": "quickie:speedpowder"
		},
		"|": {
			"item": "minecraft:stick"
		}
	},
	"result": {
		"item": "quickie:speedpowderaxe",
		"count": 1
	}
}